<?xml version="1.0" encoding="utf-8"?>
<!DOCTYPE eagle SYSTEM "eagle.dtd">
<eagle version="6.0">
<drawing>
<settings>
<setting alwaysvectorfont="yes"/>
<setting verticaltext="up"/>
</settings>
<grid distance="0.01" unitdist="inch" unit="inch" style="lines" multiple="1" display="yes" altdistance="0.05" altunitdist="mm" altunit="mm"/>
<layers>
<layer number="1" name="Top" color="4" fill="1" visible="yes" active="yes"/>
<layer number="2" name="Route2" color="1" fill="3" visible="no" active="no"/>
<layer number="3" name="Route3" color="4" fill="3" visible="no" active="no"/>
<layer number="4" name="Route4" color="1" fill="4" visible="no" active="no"/>
<layer number="5" name="Route5" color="4" fill="4" visible="no" active="no"/>
<layer number="6" name="Route6" color="1" fill="8" visible="no" active="no"/>
<layer number="7" name="Route7" color="4" fill="8" visible="no" active="no"/>
<layer number="8" name="Route8" color="1" fill="2" visible="no" active="no"/>
<layer number="9" name="Route9" color="4" fill="2" visible="no" active="no"/>
<layer number="10" name="Route10" color="1" fill="7" visible="no" active="no"/>
<layer number="11" name="Route11" color="4" fill="7" visible="no" active="no"/>
<layer number="12" name="Route12" color="1" fill="5" visible="no" active="no"/>
<layer number="13" name="Route13" color="4" fill="5" visible="no" active="no"/>
<layer number="14" name="Route14" color="1" fill="6" visible="no" active="no"/>
<layer number="15" name="Route15" color="4" fill="6" visible="no" active="no"/>
<layer number="16" name="Bottom" color="1" fill="1" visible="yes" active="yes"/>
<layer number="17" name="Pads" color="2" fill="1" visible="yes" active="yes"/>
<layer number="18" name="Vias" color="2" fill="1" visible="yes" active="yes"/>
<layer number="19" name="Unrouted" color="6" fill="1" visible="yes" active="yes"/>
<layer number="20" name="Dimension" color="15" fill="1" visible="yes" active="yes"/>
<layer number="21" name="tPlace" color="7" fill="1" visible="yes" active="yes"/>
<layer number="22" name="bPlace" color="7" fill="1" visible="yes" active="yes"/>
<layer number="23" name="tOrigins" color="15" fill="1" visible="yes" active="yes"/>
<layer number="24" name="bOrigins" color="15" fill="1" visible="yes" active="yes"/>
<layer number="25" name="tNames" color="7" fill="1" visible="yes" active="yes"/>
<layer number="26" name="bNames" color="7" fill="1" visible="yes" active="yes"/>
<layer number="27" name="tValues" color="7" fill="1" visible="yes" active="yes"/>
<layer number="28" name="bValues" color="7" fill="1" visible="yes" active="yes"/>
<layer number="29" name="tStop" color="7" fill="3" visible="yes" active="yes"/>
<layer number="30" name="bStop" color="7" fill="6" visible="yes" active="yes"/>
<layer number="31" name="tCream" color="7" fill="4" visible="yes" active="yes"/>
<layer number="32" name="bCream" color="7" fill="5" visible="yes" active="yes"/>
<layer number="33" name="tFinish" color="6" fill="3" visible="no" active="yes"/>
<layer number="34" name="bFinish" color="6" fill="6" visible="no" active="yes"/>
<layer number="35" name="tGlue" color="7" fill="4" visible="no" active="yes"/>
<layer number="36" name="bGlue" color="7" fill="5" visible="no" active="yes"/>
<layer number="37" name="tTest" color="7" fill="1" visible="no" active="yes"/>
<layer number="38" name="bTest" color="7" fill="1" visible="no" active="yes"/>
<layer number="39" name="tKeepout" color="4" fill="11" visible="yes" active="yes"/>
<layer number="40" name="bKeepout" color="1" fill="11" visible="yes" active="yes"/>
<layer number="41" name="tRestrict" color="4" fill="10" visible="yes" active="yes"/>
<layer number="42" name="bRestrict" color="1" fill="10" visible="yes" active="yes"/>
<layer number="43" name="vRestrict" color="2" fill="10" visible="no" active="yes"/>
<layer number="44" name="Drills" color="7" fill="1" visible="no" active="yes"/>
<layer number="45" name="Holes" color="7" fill="1" visible="yes" active="yes"/>
<layer number="46" name="Milling" color="3" fill="1" visible="no" active="yes"/>
<layer number="47" name="Measures" color="7" fill="1" visible="no" active="yes"/>
<layer number="48" name="Document" color="7" fill="1" visible="yes" active="yes"/>
<layer number="49" name="Reference" color="7" fill="1" visible="yes" active="yes"/>
<layer number="50" name="dxf" color="7" fill="1" visible="no" active="yes"/>
<layer number="51" name="tDocu" color="7" fill="1" visible="no" active="yes"/>
<layer number="52" name="bDocu" color="7" fill="1" visible="no" active="yes"/>
<layer number="53" name="tGND_GNDA" color="7" fill="9" visible="no" active="no"/>
<layer number="54" name="bGND_GNDA" color="1" fill="9" visible="no" active="no"/>
<layer number="56" name="wert" color="7" fill="1" visible="no" active="yes"/>
<layer number="91" name="Nets" color="2" fill="1" visible="no" active="no"/>
<layer number="92" name="Busses" color="1" fill="1" visible="no" active="no"/>
<layer number="93" name="Pins" color="2" fill="1" visible="no" active="no"/>
<layer number="94" name="Symbols" color="4" fill="1" visible="no" active="no"/>
<layer number="95" name="Names" color="7" fill="1" visible="no" active="no"/>
<layer number="96" name="Values" color="7" fill="1" visible="no" active="no"/>
<layer number="97" name="Info" color="7" fill="1" visible="no" active="no"/>
<layer number="98" name="Guide" color="6" fill="1" visible="no" active="no"/>
<layer number="100" name="Muster" color="7" fill="1" visible="no" active="no"/>
<layer number="101" name="Patch_Top" color="12" fill="4" visible="no" active="yes"/>
<layer number="102" name="Vscore" color="7" fill="1" visible="no" active="yes"/>
<layer number="103" name="3d" color="13" fill="1" visible="no" active="yes"/>
<layer number="104" name="Name" color="7" fill="1" visible="no" active="yes"/>
<layer number="105" name="tPlate" color="7" fill="1" visible="yes" active="yes"/>
<layer number="106" name="bPlate" color="7" fill="1" visible="yes" active="yes"/>
<layer number="107" name="Crop" color="7" fill="1" visible="no" active="yes"/>
<layer number="116" name="Patch_BOT" color="9" fill="4" visible="no" active="yes"/>
<layer number="121" name="_tsilk" color="7" fill="1" visible="yes" active="yes"/>
<layer number="122" name="_bsilk" color="7" fill="1" visible="yes" active="yes"/>
<layer number="125" name="_tNames" color="7" fill="1" visible="no" active="yes"/>
<layer number="144" name="Drill_legend" color="7" fill="1" visible="no" active="yes"/>
<layer number="151" name="HeatSink" color="7" fill="1" visible="no" active="yes"/>
<layer number="199" name="Contour" color="7" fill="1" visible="no" active="yes"/>
<layer number="200" name="200bmp" color="1" fill="10" visible="no" active="yes"/>
<layer number="201" name="201bmp" color="2" fill="10" visible="no" active="yes"/>
<layer number="202" name="202bmp" color="3" fill="10" visible="no" active="yes"/>
<layer number="203" name="203bmp" color="4" fill="10" visible="no" active="yes"/>
<layer number="204" name="204bmp" color="5" fill="10" visible="no" active="yes"/>
<layer number="205" name="205bmp" color="6" fill="10" visible="no" active="yes"/>
<layer number="206" name="206bmp" color="7" fill="10" visible="no" active="yes"/>
<layer number="207" name="207bmp" color="8" fill="10" visible="no" active="yes"/>
<layer number="208" name="208bmp" color="9" fill="10" visible="no" active="yes"/>
<layer number="209" name="209bmp" color="7" fill="1" visible="no" active="yes"/>
<layer number="210" name="210bmp" color="7" fill="1" visible="no" active="yes"/>
<layer number="211" name="211bmp" color="7" fill="1" visible="no" active="yes"/>
<layer number="212" name="212bmp" color="7" fill="1" visible="no" active="yes"/>
<layer number="213" name="213bmp" color="7" fill="1" visible="no" active="yes"/>
<layer number="214" name="214bmp" color="7" fill="1" visible="no" active="yes"/>
<layer number="215" name="215bmp" color="7" fill="1" visible="no" active="yes"/>
<layer number="216" name="216bmp" color="7" fill="1" visible="no" active="yes"/>
<layer number="217" name="217bmp" color="18" fill="1" visible="no" active="no"/>
<layer number="218" name="218bmp" color="19" fill="1" visible="no" active="no"/>
<layer number="219" name="219bmp" color="20" fill="1" visible="no" active="no"/>
<layer number="220" name="220bmp" color="21" fill="1" visible="no" active="no"/>
<layer number="221" name="221bmp" color="22" fill="1" visible="no" active="no"/>
<layer number="222" name="222bmp" color="23" fill="1" visible="no" active="no"/>
<layer number="223" name="223bmp" color="24" fill="1" visible="no" active="no"/>
<layer number="224" name="224bmp" color="25" fill="1" visible="no" active="no"/>
<layer number="250" name="Descript" color="3" fill="1" visible="no" active="no"/>
<layer number="251" name="SMDround" color="12" fill="11" visible="no" active="no"/>
<layer number="254" name="cooling" color="7" fill="1" visible="no" active="yes"/>
</layers>
<board>
<plain>
<text x="21.844" y="26.162" size="1.016" layer="21" ratio="15">1</text>
<text x="21.844" y="23.622" size="1.016" layer="21" ratio="15">2</text>
<text x="21.844" y="21.082" size="1.016" layer="21" ratio="15">3</text>
<text x="21.844" y="18.542" size="1.016" layer="21" ratio="15">4</text>
<text x="21.844" y="16.002" size="1.016" layer="21" ratio="15">5</text>
<text x="21.844" y="13.716" size="1.016" layer="21" ratio="15">6</text>
<text x="21.844" y="11.176" size="1.016" layer="21" ratio="15">7</text>
<text x="21.844" y="8.382" size="1.016" layer="21" ratio="15">8</text>
<text x="2.032" y="33.02" size="0.8128" layer="21" ratio="15" rot="R270">CLK</text>
<text x="1.27" y="4.064" size="1.27" layer="21" ratio="15">OUT</text>
<text x="13.208" y="13.97" size="1.016" layer="21" ratio="15" rot="R90">ADITYA.GADDAM</text>
<text x="11.938" y="13.97" size="1.016" layer="21" ratio="15" rot="R90">LOSTINSPACEBAR.COM</text>
<text x="5.588" y="10.414" size="2.032" layer="21" ratio="20">LAVA</text>
<text x="5.588" y="8.128" size="2.032" layer="21" ratio="20">LAMP</text>
<text x="5.588" y="6.858" size="0.889" layer="21" ratio="15">COLUMN</text>
<text x="5.588" y="5.842" size="0.889" layer="21" ratio="15">SCANNING</text>
<text x="2.54" y="13.716" size="1.016" layer="22" ratio="15" rot="MR90">NOV 25 2012</text>
<text x="12.168" y="5.858" size="0.889" layer="21" ratio="15">2.0</text>
<text x="4.572" y="33.02" size="0.8128" layer="21" ratio="15" rot="R270">DAT</text>
<text x="7.112" y="33.02" size="0.8128" layer="21" ratio="15" rot="R270">EN</text>
<text x="9.652" y="33.02" size="0.8128" layer="21" ratio="15" rot="R270">STRB</text>
<text x="12.192" y="33.02" size="0.8128" layer="21" ratio="15" rot="R270">3.3V</text>
<text x="14.732" y="33.02" size="0.8128" layer="21" ratio="15" rot="R270">GND</text>
<text x="17.526" y="33.02" size="0.8128" layer="21" ratio="15" rot="R270">VLED</text>
<text x="20.066" y="33.02" size="0.8128" layer="21" ratio="15" rot="R270">VLED</text>
<wire x1="1.27" y1="0" x2="0" y2="1.27" width="0.1524" layer="20"/>
<wire x1="0" y1="1.27" x2="0" y2="35.56" width="0.1524" layer="20"/>
<wire x1="0" y1="35.56" x2="1.27" y2="36.83" width="0.1524" layer="20"/>
<wire x1="1.27" y1="36.83" x2="21.59" y2="36.83" width="0.1524" layer="20"/>
<wire x1="21.59" y1="36.83" x2="22.86" y2="35.56" width="0.1524" layer="20"/>
<wire x1="22.86" y1="35.56" x2="22.86" y2="1.27" width="0.1524" layer="20"/>
<wire x1="22.86" y1="1.27" x2="21.59" y2="0" width="0.1524" layer="20"/>
<wire x1="21.59" y1="0" x2="1.27" y2="0" width="0.1524" layer="20"/>
</plain>
<libraries>
<library name="aditya_main">
<packages>
<package name="0201">
<description>&lt;b&gt;RESISTOR&lt;/b&gt; chip&lt;p&gt;
Source: http://www.vishay.com/docs/20008/dcrcw.pdf</description>
<wire x1="-0.508" y1="0.254" x2="-0.508" y2="-0.254" width="0.0508" layer="21"/>
<wire x1="-0.508" y1="-0.254" x2="0.508" y2="-0.254" width="0.0508" layer="21"/>
<wire x1="0.508" y1="-0.254" x2="0.508" y2="0.254" width="0.0508" layer="21"/>
<wire x1="0.508" y1="0.254" x2="-0.508" y2="0.254" width="0.0508" layer="21"/>
<smd name="1" x="-0.255" y="0" dx="0.28" dy="0.43" layer="1"/>
<smd name="2" x="0.255" y="0" dx="0.28" dy="0.43" layer="1"/>
<text x="-0.508" y="0.508" size="0.508" layer="25">&gt;NAME</text>
<text x="-0.508" y="-1.016" size="0.508" layer="27">&gt;VALUE</text>
<rectangle x1="-0.3" y1="-0.15" x2="-0.15" y2="0.15" layer="51"/>
<rectangle x1="0.15" y1="-0.15" x2="0.3" y2="0.15" layer="51"/>
<rectangle x1="-0.15" y1="-0.15" x2="0.15" y2="0.15" layer="21"/>
<rectangle x1="0.508" y1="-0.127" x2="0.635" y2="0.127" layer="21"/>
</package>
<package name="0603">
<wire x1="-1.473" y1="0.983" x2="1.473" y2="0.983" width="0.0508" layer="39"/>
<wire x1="1.473" y1="0.983" x2="1.473" y2="-0.983" width="0.0508" layer="39"/>
<wire x1="1.473" y1="-0.983" x2="-1.473" y2="-0.983" width="0.0508" layer="39"/>
<wire x1="-1.473" y1="-0.983" x2="-1.473" y2="0.983" width="0.0508" layer="39"/>
<wire x1="-0.356" y1="0.432" x2="0.356" y2="0.432" width="0.1016" layer="51"/>
<wire x1="-0.356" y1="-0.419" x2="0.356" y2="-0.419" width="0.1016" layer="51"/>
<wire x1="-1.524" y1="0.635" x2="-1.524" y2="-0.635" width="0.0762" layer="21"/>
<wire x1="-1.524" y1="-0.635" x2="1.524" y2="-0.635" width="0.0762" layer="21"/>
<wire x1="1.524" y1="-0.635" x2="1.524" y2="0.635" width="0.0762" layer="21"/>
<wire x1="1.524" y1="0.635" x2="-1.524" y2="0.635" width="0.0762" layer="21"/>
<smd name="1" x="-0.85" y="0" dx="1.1" dy="1" layer="1"/>
<smd name="2" x="0.85" y="0" dx="1.1" dy="1" layer="1"/>
<text x="-1.524" y="-1.016" size="0.762" layer="25" font="vector" rot="R90">&gt;NAME</text>
<text x="2.286" y="-1.016" size="0.762" layer="27" font="vector" rot="R90">&gt;VALUE</text>
<rectangle x1="-0.8382" y1="-0.4699" x2="-0.3381" y2="0.4801" layer="51"/>
<rectangle x1="0.3302" y1="-0.4699" x2="0.8303" y2="0.4801" layer="51"/>
<rectangle x1="-0.1999" y1="-0.3" x2="0.1999" y2="0.3" layer="35"/>
</package>
<package name="SCREW_#4">
<circle x="0" y="0" radius="2.54" width="0.127" layer="25"/>
<circle x="0" y="0" radius="2.54" width="0.127" layer="39"/>
<circle x="0" y="0" radius="2.54" width="0.127" layer="40"/>
<text x="-0.254" y="1.524" size="0.254" layer="21">#2</text>
<text x="-0.508" y="-1.778" size="0.254" layer="21">0.089"</text>
<hole x="0" y="0" drill="3.2638"/>
</package>
<package name="CHIPLED_0805">
<description>&lt;b&gt;CHIPLED&lt;/b&gt;&lt;p&gt;
Source: http://www.osram.convergy.de/ ... LG_R971.pdf</description>
<wire x1="-0.35" y1="0.925" x2="0.35" y2="0.925" width="0.1016" layer="51" curve="162.394521"/>
<wire x1="-0.35" y1="-0.925" x2="0.35" y2="-0.925" width="0.1016" layer="51" curve="-162.394521"/>
<wire x1="0.575" y1="0.525" x2="0.575" y2="-0.525" width="0.1016" layer="51"/>
<wire x1="-0.575" y1="-0.5" x2="-0.575" y2="0.925" width="0.1016" layer="51"/>
<wire x1="-0.625" y1="-1" x2="0.625" y2="-1" width="0.008" layer="103"/>
<wire x1="0.625" y1="-1" x2="0.625" y2="1" width="0.008" layer="103"/>
<wire x1="0.625" y1="1" x2="-0.625" y2="1" width="0.008" layer="103"/>
<wire x1="-0.625" y1="1" x2="-0.625" y2="-1" width="0.008" layer="103"/>
<circle x="-0.45" y="0.85" radius="0.103" width="0.1016" layer="51"/>
<smd name="C" x="0" y="1.05" dx="1.2" dy="1.2" layer="1"/>
<smd name="A" x="0" y="-1.05" dx="1.2" dy="1.2" layer="1"/>
<text x="-1.27" y="-1.27" size="1.27" layer="25" rot="R90">&gt;NAME</text>
<text x="2.54" y="-1.27" size="1.27" layer="27" rot="R90">&gt;VALUE</text>
<rectangle x1="0.3" y1="0.5" x2="0.625" y2="1" layer="51"/>
<rectangle x1="-0.325" y1="0.5" x2="-0.175" y2="0.75" layer="51"/>
<rectangle x1="0.175" y1="0.5" x2="0.325" y2="0.75" layer="51"/>
<rectangle x1="-0.2" y1="0.5" x2="0.2" y2="0.675" layer="51"/>
<rectangle x1="0.3" y1="-1" x2="0.625" y2="-0.5" layer="51"/>
<rectangle x1="-0.625" y1="-1" x2="-0.3" y2="-0.5" layer="51"/>
<rectangle x1="0.175" y1="-0.75" x2="0.325" y2="-0.5" layer="51"/>
<rectangle x1="-0.325" y1="-0.75" x2="-0.175" y2="-0.5" layer="51"/>
<rectangle x1="-0.2" y1="-0.675" x2="0.2" y2="-0.5" layer="51"/>
<rectangle x1="-0.6" y1="0.5" x2="-0.3" y2="0.8" layer="51"/>
<rectangle x1="-0.625" y1="0.925" x2="-0.3" y2="1" layer="51"/>
<rectangle x1="-0.508" y1="0.0635" x2="0.508" y2="0.3175" layer="21"/>
</package>
</packages>
</library>
<library name="40xx">
<packages>
<package name="SO16">
<description>&lt;b&gt;Small Outline package&lt;/b&gt; 150 mil</description>
<wire x1="4.699" y1="1.9558" x2="-4.699" y2="1.9558" width="0.1524" layer="21"/>
<wire x1="4.699" y1="-1.9558" x2="5.08" y2="-1.5748" width="0.1524" layer="21" curve="90"/>
<wire x1="-5.08" y1="1.5748" x2="-4.699" y2="1.9558" width="0.1524" layer="21" curve="-90"/>
<wire x1="4.699" y1="1.9558" x2="5.08" y2="1.5748" width="0.1524" layer="21" curve="-90"/>
<wire x1="-5.08" y1="-1.5748" x2="-4.699" y2="-1.9558" width="0.1524" layer="21" curve="90"/>
<wire x1="-4.699" y1="-1.9558" x2="4.699" y2="-1.9558" width="0.1524" layer="21"/>
<wire x1="5.08" y1="-1.5748" x2="5.08" y2="1.5748" width="0.1524" layer="21"/>
<wire x1="-5.08" y1="1.5748" x2="-5.08" y2="0.508" width="0.1524" layer="21"/>
<wire x1="-5.08" y1="0.508" x2="-5.08" y2="-0.508" width="0.1524" layer="21"/>
<wire x1="-5.08" y1="-0.508" x2="-5.08" y2="-1.5748" width="0.1524" layer="21"/>
<wire x1="-5.08" y1="0.508" x2="-5.08" y2="-0.508" width="0.1524" layer="21" curve="-180"/>
<wire x1="-5.08" y1="-1.6002" x2="5.08" y2="-1.6002" width="0.0508" layer="21"/>
<smd name="1" x="-4.445" y="-3.0734" dx="0.6604" dy="2.032" layer="1"/>
<smd name="16" x="-4.445" y="3.0734" dx="0.6604" dy="2.032" layer="1"/>
<smd name="2" x="-3.175" y="-3.0734" dx="0.6604" dy="2.032" layer="1"/>
<smd name="3" x="-1.905" y="-3.0734" dx="0.6604" dy="2.032" layer="1"/>
<smd name="15" x="-3.175" y="3.0734" dx="0.6604" dy="2.032" layer="1"/>
<smd name="14" x="-1.905" y="3.0734" dx="0.6604" dy="2.032" layer="1"/>
<smd name="4" x="-0.635" y="-3.0734" dx="0.6604" dy="2.032" layer="1"/>
<smd name="13" x="-0.635" y="3.0734" dx="0.6604" dy="2.032" layer="1"/>
<smd name="5" x="0.635" y="-3.0734" dx="0.6604" dy="2.032" layer="1"/>
<smd name="12" x="0.635" y="3.0734" dx="0.6604" dy="2.032" layer="1"/>
<smd name="6" x="1.905" y="-3.0734" dx="0.6604" dy="2.032" layer="1"/>
<smd name="7" x="3.175" y="-3.0734" dx="0.6604" dy="2.032" layer="1"/>
<smd name="11" x="1.905" y="3.0734" dx="0.6604" dy="2.032" layer="1"/>
<smd name="10" x="3.175" y="3.0734" dx="0.6604" dy="2.032" layer="1"/>
<smd name="8" x="4.445" y="-3.0734" dx="0.6604" dy="2.032" layer="1"/>
<smd name="9" x="4.445" y="3.0734" dx="0.6604" dy="2.032" layer="1"/>
<text x="-4.064" y="-0.635" size="1.27" layer="27" ratio="10">&gt;VALUE</text>
<text x="-5.461" y="-2.032" size="1.27" layer="25" ratio="10" rot="R90">&gt;NAME</text>
<rectangle x1="-0.889" y1="1.9558" x2="-0.381" y2="3.0988" layer="51"/>
<rectangle x1="-4.699" y1="-3.0988" x2="-4.191" y2="-1.9558" layer="51"/>
<rectangle x1="-3.429" y1="-3.0988" x2="-2.921" y2="-1.9558" layer="51"/>
<rectangle x1="-2.159" y1="-3.0734" x2="-1.651" y2="-1.9304" layer="51"/>
<rectangle x1="-0.889" y1="-3.0988" x2="-0.381" y2="-1.9558" layer="51"/>
<rectangle x1="-2.159" y1="1.9558" x2="-1.651" y2="3.0988" layer="51"/>
<rectangle x1="-3.429" y1="1.9558" x2="-2.921" y2="3.0988" layer="51"/>
<rectangle x1="-4.699" y1="1.9558" x2="-4.191" y2="3.0988" layer="51"/>
<rectangle x1="0.381" y1="-3.0988" x2="0.889" y2="-1.9558" layer="51"/>
<rectangle x1="1.651" y1="-3.0988" x2="2.159" y2="-1.9558" layer="51"/>
<rectangle x1="2.921" y1="-3.0988" x2="3.429" y2="-1.9558" layer="51"/>
<rectangle x1="4.191" y1="-3.0988" x2="4.699" y2="-1.9558" layer="51"/>
<rectangle x1="0.381" y1="1.9558" x2="0.889" y2="3.0988" layer="51"/>
<rectangle x1="1.651" y1="1.9558" x2="2.159" y2="3.0988" layer="51"/>
<rectangle x1="2.921" y1="1.9558" x2="3.429" y2="3.0988" layer="51"/>
<rectangle x1="4.191" y1="1.9558" x2="4.699" y2="3.0988" layer="51"/>
</package>
</packages>
</library>
<library name="SparkFun">
<packages>
<package name="1X08">
<wire x1="14.605" y1="1.27" x2="15.875" y2="1.27" width="0.2032" layer="21"/>
<wire x1="15.875" y1="1.27" x2="16.51" y2="0.635" width="0.2032" layer="21"/>
<wire x1="16.51" y1="-0.635" x2="15.875" y2="-1.27" width="0.2032" layer="21"/>
<wire x1="11.43" y1="0.635" x2="12.065" y2="1.27" width="0.2032" layer="21"/>
<wire x1="12.065" y1="1.27" x2="13.335" y2="1.27" width="0.2032" layer="21"/>
<wire x1="13.335" y1="1.27" x2="13.97" y2="0.635" width="0.2032" layer="21"/>
<wire x1="13.97" y1="-0.635" x2="13.335" y2="-1.27" width="0.2032" layer="21"/>
<wire x1="13.335" y1="-1.27" x2="12.065" y2="-1.27" width="0.2032" layer="21"/>
<wire x1="12.065" y1="-1.27" x2="11.43" y2="-0.635" width="0.2032" layer="21"/>
<wire x1="14.605" y1="1.27" x2="13.97" y2="0.635" width="0.2032" layer="21"/>
<wire x1="13.97" y1="-0.635" x2="14.605" y2="-1.27" width="0.2032" layer="21"/>
<wire x1="15.875" y1="-1.27" x2="14.605" y2="-1.27" width="0.2032" layer="21"/>
<wire x1="6.985" y1="1.27" x2="8.255" y2="1.27" width="0.2032" layer="21"/>
<wire x1="8.255" y1="1.27" x2="8.89" y2="0.635" width="0.2032" layer="21"/>
<wire x1="8.89" y1="-0.635" x2="8.255" y2="-1.27" width="0.2032" layer="21"/>
<wire x1="8.89" y1="0.635" x2="9.525" y2="1.27" width="0.2032" layer="21"/>
<wire x1="9.525" y1="1.27" x2="10.795" y2="1.27" width="0.2032" layer="21"/>
<wire x1="10.795" y1="1.27" x2="11.43" y2="0.635" width="0.2032" layer="21"/>
<wire x1="11.43" y1="-0.635" x2="10.795" y2="-1.27" width="0.2032" layer="21"/>
<wire x1="10.795" y1="-1.27" x2="9.525" y2="-1.27" width="0.2032" layer="21"/>
<wire x1="9.525" y1="-1.27" x2="8.89" y2="-0.635" width="0.2032" layer="21"/>
<wire x1="3.81" y1="0.635" x2="4.445" y2="1.27" width="0.2032" layer="21"/>
<wire x1="4.445" y1="1.27" x2="5.715" y2="1.27" width="0.2032" layer="21"/>
<wire x1="5.715" y1="1.27" x2="6.35" y2="0.635" width="0.2032" layer="21"/>
<wire x1="6.35" y1="-0.635" x2="5.715" y2="-1.27" width="0.2032" layer="21"/>
<wire x1="5.715" y1="-1.27" x2="4.445" y2="-1.27" width="0.2032" layer="21"/>
<wire x1="4.445" y1="-1.27" x2="3.81" y2="-0.635" width="0.2032" layer="21"/>
<wire x1="6.985" y1="1.27" x2="6.35" y2="0.635" width="0.2032" layer="21"/>
<wire x1="6.35" y1="-0.635" x2="6.985" y2="-1.27" width="0.2032" layer="21"/>
<wire x1="8.255" y1="-1.27" x2="6.985" y2="-1.27" width="0.2032" layer="21"/>
<wire x1="-0.635" y1="1.27" x2="0.635" y2="1.27" width="0.2032" layer="21"/>
<wire x1="0.635" y1="1.27" x2="1.27" y2="0.635" width="0.2032" layer="21"/>
<wire x1="1.27" y1="-0.635" x2="0.635" y2="-1.27" width="0.2032" layer="21"/>
<wire x1="1.27" y1="0.635" x2="1.905" y2="1.27" width="0.2032" layer="21"/>
<wire x1="1.905" y1="1.27" x2="3.175" y2="1.27" width="0.2032" layer="21"/>
<wire x1="3.175" y1="1.27" x2="3.81" y2="0.635" width="0.2032" layer="21"/>
<wire x1="3.81" y1="-0.635" x2="3.175" y2="-1.27" width="0.2032" layer="21"/>
<wire x1="3.175" y1="-1.27" x2="1.905" y2="-1.27" width="0.2032" layer="21"/>
<wire x1="1.905" y1="-1.27" x2="1.27" y2="-0.635" width="0.2032" layer="21"/>
<wire x1="-1.27" y1="0.635" x2="-1.27" y2="-0.635" width="0.2032" layer="21"/>
<wire x1="-0.635" y1="1.27" x2="-1.27" y2="0.635" width="0.2032" layer="21"/>
<wire x1="-1.27" y1="-0.635" x2="-0.635" y2="-1.27" width="0.2032" layer="21"/>
<wire x1="0.635" y1="-1.27" x2="-0.635" y2="-1.27" width="0.2032" layer="21"/>
<wire x1="17.145" y1="1.27" x2="18.415" y2="1.27" width="0.2032" layer="21"/>
<wire x1="18.415" y1="1.27" x2="19.05" y2="0.635" width="0.2032" layer="21"/>
<wire x1="19.05" y1="0.635" x2="19.05" y2="-0.635" width="0.2032" layer="21"/>
<wire x1="19.05" y1="-0.635" x2="18.415" y2="-1.27" width="0.2032" layer="21"/>
<wire x1="17.145" y1="1.27" x2="16.51" y2="0.635" width="0.2032" layer="21"/>
<wire x1="16.51" y1="-0.635" x2="17.145" y2="-1.27" width="0.2032" layer="21"/>
<wire x1="18.415" y1="-1.27" x2="17.145" y2="-1.27" width="0.2032" layer="21"/>
<pad name="1" x="0" y="0" drill="1.016" diameter="1.8796" shape="square" rot="R90"/>
<pad name="2" x="2.54" y="0" drill="1.016" diameter="1.8796" rot="R90"/>
<pad name="3" x="5.08" y="0" drill="1.016" diameter="1.8796" rot="R90"/>
<pad name="4" x="7.62" y="0" drill="1.016" diameter="1.8796" rot="R90"/>
<pad name="5" x="10.16" y="0" drill="1.016" diameter="1.8796" rot="R90"/>
<pad name="6" x="12.7" y="0" drill="1.016" diameter="1.8796" rot="R90"/>
<pad name="7" x="15.24" y="0" drill="1.016" diameter="1.8796" rot="R90"/>
<pad name="8" x="17.78" y="0" drill="1.016" diameter="1.8796" rot="R90"/>
<text x="-1.3462" y="1.8288" size="1.27" layer="25" ratio="10">&gt;NAME</text>
<text x="-1.27" y="-3.175" size="1.27" layer="27">&gt;VALUE</text>
<rectangle x1="14.986" y1="-0.254" x2="15.494" y2="0.254" layer="51"/>
<rectangle x1="12.446" y1="-0.254" x2="12.954" y2="0.254" layer="51"/>
<rectangle x1="9.906" y1="-0.254" x2="10.414" y2="0.254" layer="51"/>
<rectangle x1="7.366" y1="-0.254" x2="7.874" y2="0.254" layer="51"/>
<rectangle x1="4.826" y1="-0.254" x2="5.334" y2="0.254" layer="51"/>
<rectangle x1="2.286" y1="-0.254" x2="2.794" y2="0.254" layer="51"/>
<rectangle x1="-0.254" y1="-0.254" x2="0.254" y2="0.254" layer="51"/>
<rectangle x1="17.526" y1="-0.254" x2="18.034" y2="0.254" layer="51"/>
</package>
<package name="1X08_LOCK">
<wire x1="14.605" y1="1.27" x2="15.875" y2="1.27" width="0.2032" layer="21"/>
<wire x1="15.875" y1="1.27" x2="16.51" y2="0.635" width="0.2032" layer="21"/>
<wire x1="16.51" y1="-0.635" x2="15.875" y2="-1.27" width="0.2032" layer="21"/>
<wire x1="11.43" y1="0.635" x2="12.065" y2="1.27" width="0.2032" layer="21"/>
<wire x1="12.065" y1="1.27" x2="13.335" y2="1.27" width="0.2032" layer="21"/>
<wire x1="13.335" y1="1.27" x2="13.97" y2="0.635" width="0.2032" layer="21"/>
<wire x1="13.97" y1="-0.635" x2="13.335" y2="-1.27" width="0.2032" layer="21"/>
<wire x1="13.335" y1="-1.27" x2="12.065" y2="-1.27" width="0.2032" layer="21"/>
<wire x1="12.065" y1="-1.27" x2="11.43" y2="-0.635" width="0.2032" layer="21"/>
<wire x1="14.605" y1="1.27" x2="13.97" y2="0.635" width="0.2032" layer="21"/>
<wire x1="13.97" y1="-0.635" x2="14.605" y2="-1.27" width="0.2032" layer="21"/>
<wire x1="15.875" y1="-1.27" x2="14.605" y2="-1.27" width="0.2032" layer="21"/>
<wire x1="6.985" y1="1.27" x2="8.255" y2="1.27" width="0.2032" layer="21"/>
<wire x1="8.255" y1="1.27" x2="8.89" y2="0.635" width="0.2032" layer="21"/>
<wire x1="8.89" y1="-0.635" x2="8.255" y2="-1.27" width="0.2032" layer="21"/>
<wire x1="8.89" y1="0.635" x2="9.525" y2="1.27" width="0.2032" layer="21"/>
<wire x1="9.525" y1="1.27" x2="10.795" y2="1.27" width="0.2032" layer="21"/>
<wire x1="10.795" y1="1.27" x2="11.43" y2="0.635" width="0.2032" layer="21"/>
<wire x1="11.43" y1="-0.635" x2="10.795" y2="-1.27" width="0.2032" layer="21"/>
<wire x1="10.795" y1="-1.27" x2="9.525" y2="-1.27" width="0.2032" layer="21"/>
<wire x1="9.525" y1="-1.27" x2="8.89" y2="-0.635" width="0.2032" layer="21"/>
<wire x1="3.81" y1="0.635" x2="4.445" y2="1.27" width="0.2032" layer="21"/>
<wire x1="4.445" y1="1.27" x2="5.715" y2="1.27" width="0.2032" layer="21"/>
<wire x1="5.715" y1="1.27" x2="6.35" y2="0.635" width="0.2032" layer="21"/>
<wire x1="6.35" y1="-0.635" x2="5.715" y2="-1.27" width="0.2032" layer="21"/>
<wire x1="5.715" y1="-1.27" x2="4.445" y2="-1.27" width="0.2032" layer="21"/>
<wire x1="4.445" y1="-1.27" x2="3.81" y2="-0.635" width="0.2032" layer="21"/>
<wire x1="6.985" y1="1.27" x2="6.35" y2="0.635" width="0.2032" layer="21"/>
<wire x1="6.35" y1="-0.635" x2="6.985" y2="-1.27" width="0.2032" layer="21"/>
<wire x1="8.255" y1="-1.27" x2="6.985" y2="-1.27" width="0.2032" layer="21"/>
<wire x1="-0.635" y1="1.27" x2="0.635" y2="1.27" width="0.2032" layer="21"/>
<wire x1="0.635" y1="1.27" x2="1.27" y2="0.635" width="0.2032" layer="21"/>
<wire x1="1.27" y1="-0.635" x2="0.635" y2="-1.27" width="0.2032" layer="21"/>
<wire x1="1.27" y1="0.635" x2="1.905" y2="1.27" width="0.2032" layer="21"/>
<wire x1="1.905" y1="1.27" x2="3.175" y2="1.27" width="0.2032" layer="21"/>
<wire x1="3.175" y1="1.27" x2="3.81" y2="0.635" width="0.2032" layer="21"/>
<wire x1="3.81" y1="-0.635" x2="3.175" y2="-1.27" width="0.2032" layer="21"/>
<wire x1="3.175" y1="-1.27" x2="1.905" y2="-1.27" width="0.2032" layer="21"/>
<wire x1="1.905" y1="-1.27" x2="1.27" y2="-0.635" width="0.2032" layer="21"/>
<wire x1="-1.27" y1="0.635" x2="-1.27" y2="-0.635" width="0.2032" layer="21"/>
<wire x1="-0.635" y1="1.27" x2="-1.27" y2="0.635" width="0.2032" layer="21"/>
<wire x1="-1.27" y1="-0.635" x2="-0.635" y2="-1.27" width="0.2032" layer="21"/>
<wire x1="0.635" y1="-1.27" x2="-0.635" y2="-1.27" width="0.2032" layer="21"/>
<wire x1="17.145" y1="1.27" x2="18.415" y2="1.27" width="0.2032" layer="21"/>
<wire x1="18.415" y1="1.27" x2="19.05" y2="0.635" width="0.2032" layer="21"/>
<wire x1="19.05" y1="0.635" x2="19.05" y2="-0.635" width="0.2032" layer="21"/>
<wire x1="19.05" y1="-0.635" x2="18.415" y2="-1.27" width="0.2032" layer="21"/>
<wire x1="17.145" y1="1.27" x2="16.51" y2="0.635" width="0.2032" layer="21"/>
<wire x1="16.51" y1="-0.635" x2="17.145" y2="-1.27" width="0.2032" layer="21"/>
<wire x1="18.415" y1="-1.27" x2="17.145" y2="-1.27" width="0.2032" layer="21"/>
<pad name="1" x="0" y="0.127" drill="1.016" diameter="1.8796" shape="square" rot="R90"/>
<pad name="2" x="2.54" y="-0.127" drill="1.016" diameter="1.8796" rot="R90"/>
<pad name="3" x="5.08" y="0.127" drill="1.016" diameter="1.8796" rot="R90"/>
<pad name="4" x="7.62" y="-0.127" drill="1.016" diameter="1.8796" rot="R90"/>
<pad name="5" x="10.16" y="0.127" drill="1.016" diameter="1.8796" rot="R90"/>
<pad name="6" x="12.7" y="-0.127" drill="1.016" diameter="1.8796" rot="R90"/>
<pad name="7" x="15.24" y="0.127" drill="1.016" diameter="1.8796" rot="R90"/>
<pad name="8" x="17.78" y="-0.127" drill="1.016" diameter="1.8796" rot="R90"/>
<text x="-1.3462" y="1.8288" size="1.27" layer="25" ratio="10">&gt;NAME</text>
<text x="-1.27" y="-3.175" size="1.27" layer="27">&gt;VALUE</text>
<rectangle x1="14.986" y1="-0.254" x2="15.494" y2="0.254" layer="51"/>
<rectangle x1="12.446" y1="-0.254" x2="12.954" y2="0.254" layer="51"/>
<rectangle x1="9.906" y1="-0.254" x2="10.414" y2="0.254" layer="51"/>
<rectangle x1="7.366" y1="-0.254" x2="7.874" y2="0.254" layer="51"/>
<rectangle x1="4.826" y1="-0.254" x2="5.334" y2="0.254" layer="51"/>
<rectangle x1="2.286" y1="-0.254" x2="2.794" y2="0.254" layer="51"/>
<rectangle x1="-0.254" y1="-0.254" x2="0.254" y2="0.254" layer="51"/>
<rectangle x1="17.526" y1="-0.254" x2="18.034" y2="0.254" layer="51"/>
</package>
<package name="SOT23-3">
<wire x1="1.4224" y1="0.6604" x2="1.4224" y2="-0.6604" width="0.1524" layer="51"/>
<wire x1="1.4224" y1="-0.6604" x2="-1.4224" y2="-0.6604" width="0.1524" layer="51"/>
<wire x1="-1.4224" y1="-0.6604" x2="-1.4224" y2="0.6604" width="0.1524" layer="51"/>
<wire x1="-1.4224" y1="0.6604" x2="1.4224" y2="0.6604" width="0.1524" layer="51"/>
<wire x1="-0.8" y1="0.7" x2="-1.4" y2="0.7" width="0.2032" layer="21"/>
<wire x1="-1.4" y1="0.7" x2="-1.4" y2="-0.1" width="0.2032" layer="21"/>
<wire x1="0.8" y1="0.7" x2="1.4" y2="0.7" width="0.2032" layer="21"/>
<wire x1="1.4" y1="0.7" x2="1.4" y2="-0.1" width="0.2032" layer="21"/>
<smd name="3" x="0" y="1.1" dx="0.8" dy="0.9" layer="1"/>
<smd name="2" x="0.95" y="-1" dx="0.8" dy="0.9" layer="1"/>
<smd name="1" x="-0.95" y="-1" dx="0.8" dy="0.9" layer="1"/>
<text x="-0.8255" y="1.778" size="0.4064" layer="25">&gt;NAME</text>
<text x="-1.016" y="-0.1905" size="0.4064" layer="27">&gt;VALUE</text>
</package>
</packages>
</library>
</libraries>
<attributes>
</attributes>
<variantdefs>
</variantdefs>
<classes>
<class number="0" name="default" width="0" drill="0">
</class>
</classes>
<designrules>
<description language="de">&lt;b&gt;EAGLE Design Rules&lt;/b&gt;
&lt;p&gt;
Die Standard-Design-Rules sind so gewählt, dass sie für 
die meisten Anwendungen passen. Sollte ihre Platine 
besondere Anforderungen haben, treffen Sie die erforderlichen
Einstellungen hier und speichern die Design Rules unter 
einem neuen Namen ab.</description>
<description language="en">&lt;b&gt;Laen's PCB Order Design Rules&lt;/b&gt;
&lt;p&gt;
Please make sure your boards conform to these design rules.</description>
<param name="layerSetup" value="(1*16)"/>
<param name="mtCopper" value="0.0356mm 0.0356mm 0.0356mm 0.0356mm 0.0356mm 0.0356mm 0.0356mm 0.0356mm 0.0356mm 0.0356mm 0.0356mm 0.0356mm 0.0356mm 0.0356mm 0.0356mm 0.0356mm"/>
<param name="mtIsolate" value="1.5011mm 0.1499mm 0.2007mm 0.1499mm 0.2007mm 0.1499mm 0.2007mm 0.1499mm 0.2007mm 0.1499mm 0.2007mm 0.1499mm 0.2007mm 0.1499mm 0.2007mm"/>
<param name="mdWireWire" value="6mil"/>
<param name="mdWirePad" value="6mil"/>
<param name="mdWireVia" value="6mil"/>
<param name="mdPadPad" value="6mil"/>
<param name="mdPadVia" value="6mil"/>
<param name="mdViaVia" value="6mil"/>
<param name="mdSmdPad" value="6mil"/>
<param name="mdSmdVia" value="6mil"/>
<param name="mdSmdSmd" value="6mil"/>
<param name="mdViaViaSameLayer" value="8mil"/>
<param name="mnLayersViaInSmd" value="2"/>
<param name="mdCopperDimension" value="15mil"/>
<param name="mdDrill" value="6mil"/>
<param name="mdSmdStop" value="0mil"/>
<param name="msWidth" value="6mil"/>
<param name="msDrill" value="13mil"/>
<param name="msMicroVia" value="13mil"/>
<param name="msBlindViaRatio" value="0.5"/>
<param name="rvPadTop" value="0.25"/>
<param name="rvPadInner" value="0.25"/>
<param name="rvPadBottom" value="0.25"/>
<param name="rvViaOuter" value="0.25"/>
<param name="rvViaInner" value="0.25"/>
<param name="rvMicroViaOuter" value="0.25"/>
<param name="rvMicroViaInner" value="0.25"/>
<param name="rlMinPadTop" value="7mil"/>
<param name="rlMaxPadTop" value="20mil"/>
<param name="rlMinPadInner" value="7mil"/>
<param name="rlMaxPadInner" value="20mil"/>
<param name="rlMinPadBottom" value="7mil"/>
<param name="rlMaxPadBottom" value="20mil"/>
<param name="rlMinViaOuter" value="7mil"/>
<param name="rlMaxViaOuter" value="20mil"/>
<param name="rlMinViaInner" value="7mil"/>
<param name="rlMaxViaInner" value="20mil"/>
<param name="rlMinMicroViaOuter" value="4mil"/>
<param name="rlMaxMicroViaOuter" value="20mil"/>
<param name="rlMinMicroViaInner" value="4mil"/>
<param name="rlMaxMicroViaInner" value="20mil"/>
<param name="psTop" value="-1"/>
<param name="psBottom" value="-1"/>
<param name="psFirst" value="-1"/>
<param name="psElongationLong" value="100"/>
<param name="psElongationOffset" value="100"/>
<param name="mvStopFrame" value="1"/>
<param name="mvCreamFrame" value="0"/>
<param name="mlMinStopFrame" value="4mil"/>
<param name="mlMaxStopFrame" value="4mil"/>
<param name="mlMinCreamFrame" value="0mil"/>
<param name="mlMaxCreamFrame" value="0mil"/>
<param name="mlViaStopLimit" value="0mil"/>
<param name="srRoundness" value="0"/>
<param name="srMinRoundness" value="0mil"/>
<param name="srMaxRoundness" value="0mil"/>
<param name="slThermalIsolate" value="10mil"/>
<param name="slThermalsForVias" value="0"/>
<param name="dpMaxLengthDifference" value="10mm"/>
<param name="dpGapFactor" value="2.5"/>
<param name="checkGrid" value="0"/>
<param name="checkAngle" value="0"/>
<param name="checkFont" value="1"/>
<param name="checkRestrict" value="1"/>
<param name="useDiameter" value="13"/>
<param name="maxErrors" value="50"/>
</designrules>
<autorouter>
<pass name="Default">
<param name="RoutingGrid" value="50mil"/>
<param name="tpViaShape" value="round"/>
<param name="PrefDir.1" value="|"/>
<param name="PrefDir.2" value="0"/>
<param name="PrefDir.3" value="0"/>
<param name="PrefDir.4" value="0"/>
<param name="PrefDir.5" value="0"/>
<param name="PrefDir.6" value="0"/>
<param name="PrefDir.7" value="0"/>
<param name="PrefDir.8" value="0"/>
<param name="PrefDir.9" value="0"/>
<param name="PrefDir.10" value="0"/>
<param name="PrefDir.11" value="0"/>
<param name="PrefDir.12" value="0"/>
<param name="PrefDir.13" value="0"/>
<param name="PrefDir.14" value="0"/>
<param name="PrefDir.15" value="0"/>
<param name="PrefDir.16" value="-"/>
<param name="cfVia" value="8"/>
<param name="cfNonPref" value="5"/>
<param name="cfChangeDir" value="2"/>
<param name="cfOrthStep" value="2"/>
<param name="cfDiagStep" value="3"/>
<param name="cfExtdStep" value="0"/>
<param name="cfBonusStep" value="1"/>
<param name="cfMalusStep" value="1"/>
<param name="cfPadImpact" value="4"/>
<param name="cfSmdImpact" value="4"/>
<param name="cfBusImpact" value="0"/>
<param name="cfHugging" value="3"/>
<param name="cfAvoid" value="4"/>
<param name="cfPolygon" value="10"/>
<param name="cfBase.1" value="0"/>
<param name="cfBase.2" value="1"/>
<param name="cfBase.3" value="1"/>
<param name="cfBase.4" value="1"/>
<param name="cfBase.5" value="1"/>
<param name="cfBase.6" value="1"/>
<param name="cfBase.7" value="1"/>
<param name="cfBase.8" value="1"/>
<param name="cfBase.9" value="1"/>
<param name="cfBase.10" value="1"/>
<param name="cfBase.11" value="1"/>
<param name="cfBase.12" value="1"/>
<param name="cfBase.13" value="1"/>
<param name="cfBase.14" value="1"/>
<param name="cfBase.15" value="1"/>
<param name="cfBase.16" value="0"/>
<param name="mnVias" value="20"/>
<param name="mnSegments" value="9999"/>
<param name="mnExtdSteps" value="9999"/>
<param name="mnRipupLevel" value="10"/>
<param name="mnRipupSteps" value="100"/>
<param name="mnRipupTotal" value="100"/>
</pass>
<pass name="Follow-me" refer="Default" active="yes">
</pass>
<pass name="Busses" refer="Default" active="yes">
<param name="cfNonPref" value="4"/>
<param name="cfBusImpact" value="4"/>
<param name="cfHugging" value="0"/>
<param name="mnVias" value="0"/>
</pass>
<pass name="Route" refer="Default" active="yes">
</pass>
</autorouter>
<elements>
<element name="4094" library="40xx" package="SO16" value="4094D" x="5.334" y="18.415" smashed="yes" rot="R180">
<attribute name="NAME" x="3.048" y="18.034" size="1.016" layer="25" ratio="15"/>
</element>
<element name="R1" library="aditya_main" package="0201" value="0" x="1.016" y="13.462" smashed="yes" rot="R270">
<attribute name="NAME" x="0.762" y="13.208" size="1.016" layer="25" ratio="15" rot="R270"/>
</element>
<element name="R2" library="aditya_main" package="0201" value="0" x="2.032" y="13.462" smashed="yes" rot="R270">
<attribute name="NAME" x="2.032" y="13.208" size="1.016" layer="25" ratio="15" rot="R270"/>
</element>
<element name="C1" library="aditya_main" package="0603" value="10uF" x="9.144" y="29.718" smashed="yes" rot="MR0">
<attribute name="NAME" x="5.588" y="30.226" size="1.016" layer="26" font="vector" ratio="15" rot="MR180"/>
</element>
<element name="C2" library="aditya_main" package="0603" value="10uF" x="9.144" y="31.75" smashed="yes" rot="MR0">
<attribute name="NAME" x="5.588" y="32.258" size="1.016" layer="26" font="vector" ratio="15" rot="MR180"/>
</element>
<element name="OUT" library="SparkFun" package="1X08" value="" x="20.32" y="26.67" smashed="yes" rot="R270">
<attribute name="VALUE" x="17.145" y="27.94" size="1.27" layer="27" rot="R270"/>
</element>
<element name="CONTROL_IN" library="SparkFun" package="1X08_LOCK" value="" x="20.32" y="34.29" smashed="yes" rot="R180">
<attribute name="VALUE" x="21.59" y="37.465" size="1.27" layer="27" rot="R180"/>
</element>
<element name="CONTROL_OUT" library="SparkFun" package="1X08_LOCK" value="" x="20.32" y="2.54" smashed="yes" rot="R180">
<attribute name="VALUE" x="21.59" y="5.715" size="1.27" layer="27" rot="R180"/>
</element>
<element name="U$1" library="aditya_main" package="SCREW_#4" value="" x="2.54" y="9.2075"/>
<element name="U$3" library="aditya_main" package="SCREW_#4" value="" x="2.54" y="27.6225"/>
<element name="C3" library="aditya_main" package="0603" value="1uF" x="13.208" y="6.858" smashed="yes" rot="MR0">
<attribute name="NAME" x="14.986" y="7.366" size="1.016" layer="26" font="vector" ratio="15" rot="MR180"/>
</element>
<element name="C4" library="aditya_main" package="0603" value="10uF" x="13.208" y="10.16" smashed="yes" rot="MR0">
<attribute name="NAME" x="14.986" y="10.668" size="1.016" layer="26" font="vector" ratio="15" rot="MR180"/>
</element>
<element name="C7" library="aditya_main" package="0603" value="10uF" x="9.144" y="27.686" smashed="yes" rot="MR0">
<attribute name="NAME" x="5.588" y="28.194" size="1.016" layer="26" font="vector" ratio="15" rot="MR180"/>
</element>
<element name="C8" library="aditya_main" package="0603" value="0.1uF" x="9.144" y="25.654" smashed="yes" rot="MR0">
<attribute name="NAME" x="5.588" y="26.162" size="1.016" layer="26" font="vector" ratio="15" rot="MR180"/>
</element>
<element name="C9" library="aditya_main" package="0603" value="10uF" x="13.208" y="13.462" smashed="yes" rot="MR0">
<attribute name="NAME" x="14.986" y="13.97" size="1.016" layer="26" font="vector" ratio="15" rot="MR180"/>
</element>
<element name="C10" library="aditya_main" package="0603" value="1uF" x="13.208" y="16.764" smashed="yes" rot="MR0">
<attribute name="NAME" x="14.732" y="17.272" size="1.016" layer="26" font="vector" ratio="15" rot="MR180"/>
</element>
<element name="C11" library="aditya_main" package="0603" value="10uF" x="13.208" y="20.066" smashed="yes" rot="MR0">
<attribute name="NAME" x="14.732" y="20.574" size="1.016" layer="26" font="vector" ratio="15" rot="MR180"/>
</element>
<element name="C12" library="aditya_main" package="0603" value="10uF" x="13.208" y="29.972" smashed="yes" rot="MR0">
<attribute name="NAME" x="14.986" y="30.734" size="1.016" layer="26" font="vector" ratio="15" rot="MR180"/>
</element>
<element name="C5" library="aditya_main" package="0603" value="1uF" x="13.208" y="23.114" smashed="yes" rot="MR0">
<attribute name="NAME" x="14.986" y="23.622" size="1.016" layer="26" font="vector" ratio="15" rot="MR180"/>
</element>
<element name="C6" library="aditya_main" package="0603" value="10uF" x="13.12" y="26.564" smashed="yes" rot="MR0">
<attribute name="NAME" x="15.134" y="27.012" size="1.016" layer="26" font="vector" ratio="15" rot="MR180"/>
</element>
<element name="Q1" library="SparkFun" package="SOT23-3" value="MOSFET-PCHANNELSMD" x="16.764" y="28.956" smashed="yes" rot="R270">
<attribute name="NAME" x="16.256" y="30.0355" size="1.016" layer="25" ratio="15" rot="R270"/>
</element>
<element name="Q2" library="SparkFun" package="SOT23-3" value="MOSFET-PCHANNELSMD" x="16.764" y="25.654" smashed="yes" rot="R270">
<attribute name="NAME" x="16.256" y="26.7335" size="1.016" layer="25" ratio="15" rot="R270"/>
</element>
<element name="Q3" library="SparkFun" package="SOT23-3" value="MOSFET-PCHANNELSMD" x="16.764" y="22.352" smashed="yes" rot="R270">
<attribute name="NAME" x="16.256" y="23.1775" size="1.016" layer="25" ratio="15" rot="R270"/>
</element>
<element name="Q4" library="SparkFun" package="SOT23-3" value="MOSFET-PCHANNELSMD" x="16.764" y="19.05" smashed="yes" rot="R270">
<attribute name="NAME" x="16.256" y="20.1295" size="1.016" layer="25" ratio="15" rot="R270"/>
</element>
<element name="Q5" library="SparkFun" package="SOT23-3" value="MOSFET-PCHANNELSMD" x="16.764" y="15.748" smashed="yes" rot="R270">
<attribute name="NAME" x="16.256" y="16.8275" size="1.016" layer="25" ratio="15" rot="R270"/>
</element>
<element name="Q6" library="SparkFun" package="SOT23-3" value="MOSFET-PCHANNELSMD" x="16.764" y="12.446" smashed="yes" rot="R270">
<attribute name="NAME" x="16.256" y="13.5255" size="1.016" layer="25" ratio="15" rot="R270"/>
</element>
<element name="Q7" library="SparkFun" package="SOT23-3" value="MOSFET-PCHANNELSMD" x="16.764" y="9.144" smashed="yes" rot="R270">
<attribute name="NAME" x="16.256" y="9.9695" size="1.016" layer="25" ratio="15" rot="R270"/>
</element>
<element name="Q8" library="SparkFun" package="SOT23-3" value="MOSFET-PCHANNELSMD" x="16.764" y="5.842" smashed="yes" rot="R270">
<attribute name="NAME" x="16.256" y="6.9215" size="1.016" layer="25" ratio="15" rot="R270"/>
</element>
<element name="LED1" library="aditya_main" package="CHIPLED_0805" value="" x="7.366" y="4.826" rot="R90"/>
<element name="R3" library="aditya_main" package="0603" value="390" x="6.35" y="7.366" rot="MR270"/>
</elements>
<signals>
<signal name="Q1">
<contactref element="4094" pad="4"/>
<wire x1="10.668" y1="20.066" x2="10.668" y2="27.686" width="0.254" layer="1"/>
<wire x1="5.969" y1="21.4884" x2="5.969" y2="19.939" width="0.254" layer="1"/>
<wire x1="5.969" y1="19.939" x2="6.096" y2="19.812" width="0.254" layer="1"/>
<wire x1="6.096" y1="19.812" x2="10.414" y2="19.812" width="0.254" layer="1"/>
<wire x1="10.414" y1="19.812" x2="10.668" y2="20.066" width="0.254" layer="1"/>
<contactref element="Q1" pad="1"/>
<wire x1="10.668" y1="27.686" x2="12.7" y2="29.718" width="0.254" layer="1"/>
<wire x1="15.576" y1="29.718" x2="15.764" y2="29.906" width="0.1524" layer="1"/>
<wire x1="15.576" y1="29.718" x2="12.7" y2="29.718" width="0.254" layer="1"/>
</signal>
<signal name="Q2">
<contactref element="4094" pad="5"/>
<wire x1="4.699" y1="21.4884" x2="4.699" y2="19.685" width="0.254" layer="1"/>
<wire x1="4.699" y1="19.685" x2="5.08" y2="19.304" width="0.254" layer="1"/>
<wire x1="5.08" y1="19.304" x2="10.668" y2="19.304" width="0.254" layer="1"/>
<wire x1="10.668" y1="19.304" x2="11.176" y2="19.812" width="0.254" layer="1"/>
<wire x1="11.176" y1="19.812" x2="11.176" y2="24.638" width="0.254" layer="1"/>
<contactref element="Q2" pad="1"/>
<wire x1="13.142" y1="26.604" x2="11.176" y2="24.638" width="0.254" layer="1"/>
<wire x1="15.764" y1="26.604" x2="13.142" y2="26.604" width="0.254" layer="1"/>
</signal>
<signal name="Q3">
<contactref element="4094" pad="6"/>
<wire x1="3.429" y1="21.4884" x2="3.429" y2="19.685" width="0.254" layer="1"/>
<wire x1="3.429" y1="19.685" x2="4.318" y2="18.796" width="0.254" layer="1"/>
<wire x1="4.318" y1="18.796" x2="10.922" y2="18.796" width="0.254" layer="1"/>
<contactref element="Q3" pad="1"/>
<wire x1="15.764" y1="23.302" x2="13.904" y2="23.302" width="0.254" layer="1"/>
<wire x1="13.904" y1="23.302" x2="12.7" y2="22.098" width="0.254" layer="1"/>
<wire x1="12.7" y1="22.098" x2="12.7" y2="20.574" width="0.254" layer="1"/>
<wire x1="12.7" y1="20.574" x2="10.922" y2="18.796" width="0.254" layer="1"/>
</signal>
<signal name="Q4">
<contactref element="4094" pad="7"/>
<wire x1="2.159" y1="21.4884" x2="2.159" y2="19.685" width="0.254" layer="1"/>
<wire x1="2.159" y1="19.685" x2="3.556" y2="18.288" width="0.254" layer="1"/>
<wire x1="3.556" y1="18.288" x2="11.684" y2="18.288" width="0.254" layer="1"/>
<contactref element="Q4" pad="1"/>
<wire x1="15.764" y1="20" x2="13.396" y2="20" width="0.254" layer="1"/>
<wire x1="13.396" y1="20" x2="11.684" y2="18.288" width="0.254" layer="1"/>
</signal>
<signal name="Q5">
<contactref element="4094" pad="14"/>
<wire x1="7.239" y1="15.3416" x2="7.239" y2="12.319" width="0.254" layer="1"/>
<wire x1="7.239" y1="12.319" x2="7.62" y2="11.938" width="0.254" layer="1"/>
<wire x1="7.62" y1="11.938" x2="11.43" y2="11.938" width="0.254" layer="1"/>
<contactref element="Q5" pad="1"/>
<wire x1="11.43" y1="11.938" x2="12.446" y2="12.954" width="0.254" layer="1"/>
<wire x1="12.446" y1="12.954" x2="12.446" y2="15.24" width="0.254" layer="1"/>
<wire x1="12.446" y1="15.24" x2="13.97" y2="16.764" width="0.254" layer="1"/>
<wire x1="13.97" y1="16.764" x2="15.698" y2="16.764" width="0.254" layer="1"/>
<wire x1="15.698" y1="16.764" x2="15.764" y2="16.698" width="0.1524" layer="1"/>
</signal>
<signal name="Q6">
<contactref element="4094" pad="13"/>
<wire x1="5.969" y1="15.3416" x2="5.969" y2="12.573" width="0.254" layer="1"/>
<wire x1="5.969" y1="12.573" x2="7.112" y2="11.43" width="0.254" layer="1"/>
<contactref element="Q6" pad="1"/>
<wire x1="15.764" y1="13.396" x2="14.158" y2="13.396" width="0.254" layer="1"/>
<wire x1="14.158" y1="13.396" x2="12.192" y2="11.43" width="0.254" layer="1"/>
<wire x1="12.192" y1="11.43" x2="7.112" y2="11.43" width="0.254" layer="1"/>
</signal>
<signal name="Q7">
<contactref element="4094" pad="12"/>
<wire x1="4.699" y1="15.3416" x2="4.699" y2="13.081" width="0.254" layer="1"/>
<wire x1="4.699" y1="13.081" x2="6.858" y2="10.922" width="0.254" layer="1"/>
<wire x1="6.858" y1="10.922" x2="12.192" y2="10.922" width="0.254" layer="1"/>
<contactref element="Q7" pad="1"/>
<wire x1="15.764" y1="10.094" x2="13.02" y2="10.094" width="0.254" layer="1"/>
<wire x1="13.02" y1="10.094" x2="12.192" y2="10.922" width="0.254" layer="1"/>
</signal>
<signal name="Q8">
<contactref element="4094" pad="11"/>
<contactref element="Q8" pad="1"/>
<wire x1="3.429" y1="15.3416" x2="3.429" y2="13.589" width="0.254" layer="1"/>
<wire x1="3.429" y1="13.589" x2="6.604" y2="10.414" width="0.254" layer="1"/>
<wire x1="6.604" y1="10.414" x2="11.176" y2="10.414" width="0.254" layer="1"/>
<wire x1="11.176" y1="10.414" x2="12.192" y2="9.398" width="0.254" layer="1"/>
<wire x1="12.192" y1="9.398" x2="12.192" y2="7.874" width="0.254" layer="1"/>
<wire x1="12.192" y1="7.874" x2="13.208" y2="6.858" width="0.254" layer="1"/>
<wire x1="13.208" y1="6.858" x2="15.698" y2="6.858" width="0.254" layer="1"/>
<wire x1="15.698" y1="6.858" x2="15.764" y2="6.792" width="0.1524" layer="1"/>
</signal>
<signal name="STROBE">
<contactref element="4094" pad="1"/>
<contactref element="CONTROL_IN" pad="5"/>
<contactref element="CONTROL_OUT" pad="5"/>
<wire x1="10.16" y1="34.163" x2="10.16" y2="23.876" width="0.254" layer="1"/>
<wire x1="10.16" y1="23.876" x2="9.906" y2="23.622" width="0.254" layer="1"/>
<via x="9.906" y="23.622" extent="1-16" drill="0.3302"/>
<wire x1="9.779" y1="21.4884" x2="9.779" y2="23.495" width="0.254" layer="1"/>
<wire x1="9.779" y1="23.495" x2="9.906" y2="23.622" width="0.1524" layer="1"/>
<wire x1="9.144" y1="17.018" x2="9.144" y2="3.429" width="0.254" layer="16"/>
<wire x1="9.144" y1="3.429" x2="10.16" y2="2.413" width="0.254" layer="16"/>
<wire x1="9.906" y1="23.622" x2="8.89" y2="22.606" width="0.254" layer="16"/>
<wire x1="8.89" y1="22.606" x2="8.89" y2="17.272" width="0.254" layer="16"/>
<wire x1="9.144" y1="17.018" x2="8.89" y2="17.272" width="0.254" layer="16"/>
</signal>
<signal name="DATA">
<contactref element="4094" pad="2"/>
<contactref element="CONTROL_IN" pad="7"/>
<wire x1="8.382" y1="26.416" x2="8.382" y2="20.9804" width="0.254" layer="1"/>
<wire x1="8.382" y1="20.9804" x2="8.509" y2="21.4884" width="0.1524" layer="1"/>
<wire x1="8.382" y1="26.416" x2="5.08" y2="29.718" width="0.254" layer="1"/>
<wire x1="5.08" y1="29.718" x2="5.08" y2="34.163" width="0.254" layer="1"/>
</signal>
<signal name="CLK">
<contactref element="4094" pad="3"/>
<contactref element="CONTROL_IN" pad="8"/>
<contactref element="CONTROL_OUT" pad="8"/>
<wire x1="7.239" y1="24.003" x2="7.112" y2="23.876" width="0.1524" layer="1"/>
<via x="7.112" y="23.876" extent="1-16" drill="0.3302"/>
<wire x1="7.239" y1="21.4884" x2="7.239" y2="23.749" width="0.254" layer="1"/>
<wire x1="7.239" y1="23.749" x2="7.112" y2="23.876" width="0.254" layer="1"/>
<wire x1="8.128" y1="4.826" x2="8.128" y2="15.494" width="0.254" layer="16"/>
<wire x1="8.128" y1="15.494" x2="7.112" y2="16.51" width="0.254" layer="16"/>
<wire x1="7.112" y1="16.51" x2="7.112" y2="23.876" width="0.254" layer="16"/>
<wire x1="7.239" y1="24.003" x2="7.239" y2="26.797" width="0.254" layer="1"/>
<wire x1="7.239" y1="26.797" x2="2.54" y2="31.496" width="0.254" layer="1"/>
<wire x1="2.54" y1="31.496" x2="2.54" y2="34.417" width="0.254" layer="1"/>
<wire x1="8.128" y1="4.826" x2="7.62" y2="4.318" width="0.254" layer="16"/>
<wire x1="7.62" y1="4.318" x2="4.191" y2="4.318" width="0.254" layer="16"/>
<wire x1="4.191" y1="4.318" x2="2.54" y2="2.667" width="0.254" layer="16"/>
</signal>
<signal name="ENABLE">
<contactref element="4094" pad="15"/>
<contactref element="CONTROL_IN" pad="6"/>
<contactref element="CONTROL_OUT" pad="6"/>
<via x="9.144" y="24.384" extent="1-16" drill="0.3302"/>
<via x="7.874" y="17.018" extent="1-16" drill="0.3302"/>
<wire x1="8.636" y1="14.8336" x2="8.509" y2="15.3416" width="0.1524" layer="1"/>
<wire x1="9.144" y1="24.384" x2="9.144" y2="26.416" width="0.254" layer="1"/>
<wire x1="9.144" y1="26.416" x2="7.62" y2="27.94" width="0.254" layer="1"/>
<wire x1="7.62" y1="27.94" x2="7.62" y2="34.417" width="0.254" layer="1"/>
<wire x1="8.636" y1="3.683" x2="7.62" y2="2.667" width="0.254" layer="16"/>
<wire x1="9.144" y1="24.384" x2="8.382" y2="23.622" width="0.254" layer="16"/>
<wire x1="8.382" y1="23.622" x2="8.382" y2="17.526" width="0.254" layer="16"/>
<wire x1="8.636" y1="3.683" x2="8.636" y2="16.256" width="0.254" layer="16"/>
<wire x1="8.636" y1="16.256" x2="7.874" y2="17.018" width="0.1524" layer="16"/>
<wire x1="8.509" y1="15.3416" x2="8.509" y2="16.383" width="0.254" layer="1"/>
<wire x1="8.509" y1="16.383" x2="7.874" y2="17.018" width="0.254" layer="1"/>
<wire x1="8.382" y1="17.526" x2="7.874" y2="17.018" width="0.254" layer="16"/>
</signal>
<signal name="GND">
<contactref element="4094" pad="8"/>
<contactref element="C1" pad="2"/>
<contactref element="C2" pad="2"/>
<via x="1.27" y="17.78" extent="1-16" drill="0.889" diameter="1.4224"/>
<wire x1="0.889" y1="21.4884" x2="0.889" y2="18.161" width="0.762" layer="1"/>
<wire x1="0.889" y1="18.161" x2="1.27" y2="17.78" width="0.762" layer="1"/>
<contactref element="C7" pad="2"/>
<contactref element="C8" pad="2"/>
<contactref element="CONTROL_OUT" pad="3"/>
<contactref element="CONTROL_IN" pad="3"/>
<polygon width="0.1524" layer="16">
<vertex x="-1.27" y="38.1"/>
<vertex x="-1.27" y="-2.54"/>
<vertex x="16.51" y="-2.54"/>
<vertex x="16.51" y="4.572"/>
<vertex x="12.954" y="4.572"/>
<vertex x="12.954" y="31.496"/>
<vertex x="16.51" y="31.496"/>
<vertex x="16.51" y="38.1"/>
</polygon>
<contactref element="C9" pad="2"/>
<contactref element="C10" pad="2"/>
<contactref element="C11" pad="2"/>
<contactref element="C12" pad="2"/>
<contactref element="C4" pad="2"/>
<contactref element="C3" pad="2"/>
<contactref element="C5" pad="2"/>
<contactref element="C6" pad="2"/>
<contactref element="R3" pad="1"/>
</signal>
<signal name="QS*">
<contactref element="4094" pad="10"/>
<contactref element="R2" pad="1"/>
<wire x1="2.032" y1="13.717" x2="2.032" y2="14.5796" width="0.254" layer="1"/>
<wire x1="2.032" y1="14.5796" x2="2.159" y2="15.3416" width="0.1524" layer="1"/>
</signal>
<signal name="QS">
<contactref element="4094" pad="9"/>
<contactref element="R1" pad="1"/>
<wire x1="1.016" y1="13.717" x2="1.016" y2="14.5796" width="0.254" layer="1"/>
<wire x1="1.016" y1="14.5796" x2="0.889" y2="15.3416" width="0.1524" layer="1"/>
</signal>
<signal name="DATA_OUT">
<contactref element="R1" pad="2"/>
<contactref element="R2" pad="2"/>
<contactref element="CONTROL_OUT" pad="7"/>
<wire x1="1.016" y1="13.207" x2="1.016" y2="12.7" width="0.254" layer="1"/>
<wire x1="1.016" y1="12.7" x2="1.524" y2="12.192" width="0.254" layer="1"/>
<wire x1="1.524" y1="12.192" x2="2.54" y2="12.192" width="0.254" layer="1"/>
<wire x1="2.54" y1="12.192" x2="4.064" y2="12.192" width="0.254" layer="1"/>
<wire x1="4.064" y1="12.192" x2="5.588" y2="10.668" width="0.254" layer="1"/>
<wire x1="2.032" y1="13.207" x2="2.032" y2="12.7" width="0.254" layer="1"/>
<wire x1="2.032" y1="12.7" x2="2.54" y2="12.192" width="0.254" layer="1"/>
<wire x1="5.588" y1="10.668" x2="5.588" y2="7.62" width="0.254" layer="1"/>
<wire x1="5.588" y1="7.62" x2="3.81" y2="5.842" width="0.254" layer="1"/>
<wire x1="3.81" y1="5.842" x2="3.81" y2="3.683" width="0.254" layer="1"/>
<wire x1="3.81" y1="3.683" x2="5.08" y2="2.413" width="0.254" layer="1"/>
</signal>
<signal name="OUT1">
<contactref element="OUT" pad="1"/>
<contactref element="Q1" pad="3"/>
<wire x1="17.864" y1="28.956" x2="18.034" y2="28.956" width="1.27" layer="1"/>
<wire x1="18.034" y1="28.956" x2="20.32" y2="26.67" width="1.27" layer="1"/>
</signal>
<signal name="OUT3">
<contactref element="OUT" pad="3"/>
<contactref element="Q3" pad="3"/>
<wire x1="17.864" y1="22.352" x2="19.558" y2="22.352" width="1.27" layer="1"/>
<wire x1="19.558" y1="22.352" x2="20.32" y2="21.59" width="1.27" layer="1"/>
</signal>
<signal name="OUT5">
<contactref element="OUT" pad="5"/>
<contactref element="Q5" pad="3"/>
<wire x1="17.864" y1="15.748" x2="19.558" y2="15.748" width="1.27" layer="1"/>
<wire x1="19.558" y1="15.748" x2="20.32" y2="16.51" width="1.27" layer="1"/>
</signal>
<signal name="OUT7">
<contactref element="OUT" pad="7"/>
<contactref element="Q7" pad="3"/>
<wire x1="17.864" y1="9.144" x2="18.034" y2="9.144" width="1.27" layer="1"/>
<wire x1="18.034" y1="9.144" x2="20.32" y2="11.43" width="1.27" layer="1"/>
</signal>
<signal name="OUT2">
<contactref element="OUT" pad="2"/>
<contactref element="Q2" pad="3"/>
<wire x1="17.864" y1="25.654" x2="17.864" y2="25.57" width="1.27" layer="1"/>
<wire x1="17.864" y1="25.57" x2="19.304" y2="24.13" width="1.27" layer="1"/>
<wire x1="19.304" y1="24.13" x2="20.32" y2="24.13" width="1.27" layer="1"/>
</signal>
<signal name="OUT4">
<contactref element="OUT" pad="4"/>
<contactref element="Q4" pad="3"/>
<wire x1="17.864" y1="19.05" x2="20.32" y2="19.05" width="1.27" layer="1"/>
</signal>
<signal name="OUT6">
<contactref element="OUT" pad="6"/>
<contactref element="Q6" pad="3"/>
<wire x1="17.864" y1="12.446" x2="18.796" y2="12.446" width="1.27" layer="1"/>
<wire x1="18.796" y1="12.446" x2="20.32" y2="13.97" width="1.27" layer="1"/>
</signal>
<signal name="OUT8">
<contactref element="OUT" pad="8"/>
<contactref element="Q8" pad="3"/>
<wire x1="17.864" y1="5.842" x2="17.864" y2="6.434" width="1.27" layer="1"/>
<wire x1="17.864" y1="6.434" x2="20.32" y2="8.89" width="1.27" layer="1"/>
</signal>
<signal name="3.3V">
<contactref element="CONTROL_IN" pad="4"/>
<contactref element="CONTROL_OUT" pad="4"/>
<contactref element="4094" pad="16"/>
<contactref element="C2" pad="1"/>
<contactref element="C1" pad="1"/>
<via x="10.16" y="13.208" extent="1-16" drill="0.889" diameter="1.4224"/>
<wire x1="9.994" y1="29.718" x2="9.994" y2="31.75" width="0.762" layer="16"/>
<contactref element="C7" pad="1"/>
<contactref element="C8" pad="1"/>
<wire x1="9.994" y1="29.718" x2="9.994" y2="27.686" width="0.762" layer="16"/>
<wire x1="9.994" y1="27.686" x2="9.994" y2="25.654" width="0.762" layer="16"/>
<wire x1="9.906" y1="5.08" x2="9.906" y2="12.954" width="0.762" layer="16"/>
<wire x1="9.906" y1="12.954" x2="10.16" y2="13.208" width="0.762" layer="16"/>
<wire x1="9.779" y1="15.3416" x2="9.779" y2="13.589" width="0.762" layer="1"/>
<wire x1="9.779" y1="13.589" x2="10.16" y2="13.208" width="0.762" layer="1"/>
<wire x1="9.906" y1="22.098" x2="9.906" y2="13.462" width="0.762" layer="16"/>
<wire x1="9.906" y1="13.462" x2="10.16" y2="13.208" width="0.762" layer="16"/>
<wire x1="9.906" y1="22.098" x2="10.922" y2="23.114" width="0.762" layer="16"/>
<wire x1="10.922" y1="23.114" x2="10.922" y2="24.726" width="0.762" layer="16"/>
<wire x1="10.922" y1="24.726" x2="9.994" y2="25.654" width="0.762" layer="16"/>
<wire x1="12.7" y1="34.417" x2="12.661" y2="34.417" width="0.762" layer="16"/>
<wire x1="12.661" y1="34.417" x2="9.994" y2="31.75" width="0.762" layer="16"/>
<wire x1="12.7" y1="2.667" x2="12.319" y2="2.667" width="0.762" layer="16"/>
<wire x1="12.319" y1="2.667" x2="9.906" y2="5.08" width="0.762" layer="16"/>
<contactref element="LED1" pad="A"/>
<wire x1="8.416" y1="4.826" x2="10.541" y2="4.826" width="0.254" layer="1"/>
<wire x1="10.541" y1="4.826" x2="12.7" y2="2.667" width="0.254" layer="1"/>
</signal>
<signal name="V_LED">
<contactref element="CONTROL_OUT" pad="2"/>
<contactref element="CONTROL_OUT" pad="1"/>
<contactref element="CONTROL_IN" pad="2"/>
<contactref element="CONTROL_IN" pad="1"/>
<polygon width="0.1524" layer="16">
<vertex x="17.018" y="38.1"/>
<vertex x="17.018" y="30.988"/>
<vertex x="13.462" y="30.988"/>
<vertex x="13.462" y="5.08"/>
<vertex x="17.018" y="5.08"/>
<vertex x="17.018" y="-1.27"/>
<vertex x="24.13" y="-1.27"/>
<vertex x="24.13" y="38.1"/>
</polygon>
<contactref element="C9" pad="1"/>
<contactref element="C10" pad="1"/>
<contactref element="C3" pad="1"/>
<contactref element="C4" pad="1"/>
<contactref element="C12" pad="1"/>
<contactref element="C11" pad="1"/>
<contactref element="C5" pad="1"/>
<contactref element="C6" pad="1"/>
<contactref element="Q1" pad="2"/>
<contactref element="Q2" pad="2"/>
<contactref element="Q3" pad="2"/>
<contactref element="Q4" pad="2"/>
<contactref element="Q5" pad="2"/>
<contactref element="Q6" pad="2"/>
<contactref element="Q7" pad="2"/>
<contactref element="Q8" pad="2"/>
<via x="14.224" y="28.194" extent="1-16" drill="0.9" diameter="1.4224"/>
<via x="14.224" y="24.892" extent="1-16" drill="0.9" diameter="1.4224"/>
<via x="14.224" y="21.59" extent="1-16" drill="0.9" diameter="1.4224"/>
<via x="14.224" y="18.288" extent="1-16" drill="0.9" diameter="1.4224"/>
<via x="14.224" y="14.986" extent="1-16" drill="0.9" diameter="1.4224"/>
<via x="14.224" y="11.684" extent="1-16" drill="0.9" diameter="1.4224"/>
<via x="14.224" y="8.382" extent="1-16" drill="0.9" diameter="1.4224"/>
<wire x1="14.224" y1="14.986" x2="15.576" y2="14.986" width="1.27" layer="1"/>
<wire x1="15.576" y1="14.986" x2="15.764" y2="14.798" width="1.27" layer="1"/>
<wire x1="14.224" y1="18.288" x2="15.576" y2="18.288" width="1.27" layer="1"/>
<wire x1="15.576" y1="18.288" x2="15.764" y2="18.1" width="1.27" layer="1"/>
<wire x1="14.224" y1="21.59" x2="15.576" y2="21.59" width="1.27" layer="1"/>
<wire x1="15.576" y1="21.59" x2="15.764" y2="21.402" width="1.27" layer="1"/>
<wire x1="14.224" y1="24.892" x2="15.576" y2="24.892" width="1.27" layer="1"/>
<wire x1="15.576" y1="24.892" x2="15.764" y2="24.704" width="1.27" layer="1"/>
<wire x1="14.224" y1="28.194" x2="15.576" y2="28.194" width="1.27" layer="1"/>
<wire x1="15.576" y1="28.194" x2="15.764" y2="28.006" width="1.27" layer="1"/>
<wire x1="14.224" y1="11.684" x2="15.576" y2="11.684" width="1.27" layer="1"/>
<wire x1="15.576" y1="11.684" x2="15.764" y2="11.496" width="1.27" layer="1"/>
<wire x1="14.224" y1="8.382" x2="15.576" y2="8.382" width="1.27" layer="1"/>
<wire x1="15.576" y1="8.382" x2="15.764" y2="8.194" width="1.27" layer="1"/>
<wire x1="15.764" y1="4.892" x2="15.764" y2="4.683" width="1.27" layer="1"/>
<wire x1="15.764" y1="4.683" x2="17.78" y2="2.667" width="1.27" layer="1"/>
</signal>
<signal name="N$1">
<contactref element="R3" pad="2"/>
<contactref element="LED1" pad="C"/>
<wire x1="6.316" y1="4.826" x2="5.334" y2="4.826" width="0.254" layer="1"/>
<wire x1="5.334" y1="4.826" x2="4.826" y2="5.334" width="0.254" layer="1"/>
<via x="4.826" y="5.334" extent="1-16" drill="0.3302"/>
<wire x1="4.826" y1="5.334" x2="4.826" y2="5.842" width="0.254" layer="16"/>
<wire x1="4.826" y1="5.842" x2="5.334" y2="6.35" width="0.254" layer="16"/>
<wire x1="5.334" y1="6.35" x2="6.184" y2="6.35" width="0.254" layer="16"/>
<wire x1="6.184" y1="6.35" x2="6.35" y2="6.516" width="0.254" layer="16"/>
</signal>
</signals>
</board>
</drawing>
</eagle>
